<?xml version="1.0" encoding="UTF-8" standalone="no"?>
<svg width="32px" height="32px" viewBox="0 0 32 32" version="1.1" xmlns="http://www.w3.org/2000/svg" xmlns:xlink="http://www.w3.org/1999/xlink">
    <!-- Generator: Sketch 48.2 (47327) - http://www.bohemiancoding.com/sketch -->
    <title>Group</title>
    <desc>Created with Sketch.</desc>
    <defs></defs>
    <g id="m-live-chat-normal-click-live-chat" stroke="none" stroke-width="1" fill="none" fill-rule="evenodd" transform="translate(-12.000000, -14.000000)">
        <g id="Group" transform="translate(12.000000, 14.000000)">
            <circle id="Oval" fill="#FFFFFF" cx="16" cy="16" r="16"></circle>
            <path d="M6.65,12.2419286 C5.64192857,12.8830714 5,14.075 5,15.5419286 C5,17.65 6.28307143,19.3919286 8.39192857,19.3919286 C8.85,19.3919286 9.21692857,19.025 9.21692857,18.5669286 L9.21692857,12.6080714 C9.21692857,12.2419286 8.94192857,11.875 8.575,11.7830714 C9.85807143,8.75807143 12.7,6.65 16,6.65 C19.3,6.65 22.1419286,8.75807143 23.425,11.7830714 C23.0580714,11.875 22.7830714,12.15 22.7830714,12.6080714 L22.7830714,18.5669286 C22.7830714,19.025 23.15,19.3919286 23.6080714,19.3919286 C23.7919286,19.3919286 23.975,19.3919286 24.1580714,19.3 C23.8830714,20.8580714 23.2419286,22.05 22.5080714,22.875 C22.05,23.425 21.6830714,23.7919286 21.3169286,23.975 C21.1788877,24.0435485 21.0545357,24.136746 20.95,24.25 C20.8580714,24.25 20.8580714,24.25 20.8580714,24.3419286 L19.3,24.3419286 C19.025,23.425 18.0169286,22.7830714 16.825,22.7830714 C15.45,22.7830714 14.2580714,23.7 14.2580714,24.8919286 C14.2580714,26.0830714 15.3580714,27 16.825,27 C18.0169286,27 18.9330714,26.3580714 19.3,25.4419286 L20.95,25.4419286 C21.225,25.4419286 21.3169286,25.35 21.5,25.2580714 C21.6830714,25.1669286 21.8669286,25.075 22.05,24.8919286 C22.5080714,24.6169286 22.9669286,24.1580714 23.5169286,23.6080714 C24.4330714,22.5080714 25.2580714,20.95 25.4419286,18.8419286 C26.45,18.2 27,17.0080714 27,15.6330714 C27,14.1669286 26.3580714,12.975 25.35,12.3330714 C24.1580714,8.025 20.4,5 16,5 C11.6,5 7.84192857,8.025 6.65,12.2419286 Z" id="sidebar-7fish" fill="#38B2A6" fill-rule="nonzero"></path>
        </g>
    </g>
</svg>