,
，
a
1
2
3
4
5
6
7
8
9
0
，
。,
 
的
是
那
呢
吗
能
，
。
～
：
？
	
奥
恩
嗯
噢
喔
吖
丫
个
却
嗯嗯
恩恩
非常高兴
欢迎
为您服务
・
稍等一下
哈喽
喽
哈
hi
n
lt
x2f
|‍
li
gt
nbsp
too
help
www
to
h5
jobs
cn
pan
mp
none
cgf
k
you
shop
__
baidu
why
g
from
width
share
f
24px
com
uncle
y
r
solid

https
org
≦
5983d
lh
lw
mh
mw
daili
max
t
背光
21px
»
zh
h
class
zs
26px
1px
fetch
style
imgs
mpic
tt
、
↙
??
o
__
︶
≦
ﾟ
∀
▽
╭
w
sn
e6
class
style
bye
21px
稍
待
 
　
随
艹
&#
°
ω
ಥ
....
.....
......
........
0x
＿
¤
±
µ
º
¼
×
à
á
ä
å
æ
ç
é
ê
ð
ò
ó
ö
ú
―
→
∩
⊙
□
▼
→
－
．
／
＝
＼
ａ
ｂ
ｃ
ｄ
ｅ
ｆ
ｇ
ｈ
ｉ
ｊ
ｋ
ｌ
ｍ
ｎ
ｏ
ｐ
ｑ
ｓ
ｔ
ｕ
ｖ
ｗ
ｘ
ｙ
ｚ
╱
灬
￣
【
且
：
 
谨
被
砰
咳
临
见
@
必
经
﹔
`
￥
除
其
呸
％
的
》
‘
;
阿
呃
哈
﹏
何
[
也
问
{
俺
然
仍
替
纯
>
…
纵
离
连
便
仅
因
方
啥
﹚
以
哩
∼
请

自
梆
】
初
？
!
A
半
怪
哎
﹕
逢
几
出
互
归
固
宁
各
颇
而

嘘
“
＞
管
均
,
咯
·
边
常
<
沿
所
么
啊
这
乘
づ
\
哟
～
&
迄
啦
满
|
如
殆
）
冒
〗
奇
'
别
冲
乃
故
＊
顷
腾
。
（
*
喏
嘎
〈
或
"
蛮
莫
唉
﹎
跟
矣
叫
吓
嗯
乒
＃
共
着
很
于
”
定
-
=
﹉
从
当
﹙
乎
]
照
齐
白
呵
}
+
趁
＂
立
咋
倘
依
屡
那
切
(
嗳
呀
你
︿
呐
岂
竟
该
兮
己
嘿
赶
拿
焉
吱
｜
朝
甫
#
您
由
论
］
光
及
｝
们
她
怎
第
得
＜
〞
本
.
咱
看
奈
啐
﹒
绝
^
若
此
可
另
怕
彼
~
谁
＇
〉
把
独
向
、
弗
’
望
饱
咚
咦
)
亲
活
更
喀
还
比
传
哦
虽
极
一
＆
粗
多
＄
$
让
将
都
︰
哇
但
略
像
，
﹐
哗
呜
敢
据
历
任
！
按
凭
吗
嘛
借
吧
甭
/
又
嘻
［
?
之
窃
呗
_
既
呕
哼
它
臭
《
喂
＠
带
地
:
概
靠
呢
快
并
顺
往
者
了
＋
则
；
%
哉
尽
千
—
﹑
某
｛
汝
嗬
即
起
:)
看来
不时
当中
不已
忽然
一切
当即
有的
而外
越是
哎哟
此外
然则
挨着
 ]
从重
不问
千万
并非
慢说
啪达
几时
串行
倘或
累年
岂止
看看
抑或
不消
反之
不料
即若
即或
哈哈
而况
匆匆
传闻
竟然
但愿
即刻
一则
莫若
在下
哎呀
为了
很多
鄙人
何妨
甚而
立地
设使
几番
日见
叮咚
陡然
宁肯
这边
拦腰
加以
次第
到头
啊哟
人人
恰好
啊呀
忽地
当下
毋宁
绝顶
虽则
沙沙
大抵
从宽
之类
固然
来看
这是
为着
当着
待到
就是
除去
从此
不起
当真
立刻
挨次
各位
啊哈
几度
毫无
话说
乌乎
加之
扑通
据此
向着
一段
尽量
旁人
将近
其次
她们
何须
牢牢
诚然
上来
恰逢
任凭
更为
那末
论说
打从
趁便
朝着
哪样
如上
如下
那儿
不过
无宁
决非
>>
上去
东西
然而
乘机
不独
如常
既是
就地
叮当
马上
顿时
俩天
精光
立时
每每
起见
单纯
恰似
--
不得
突然
原来
极为
动辄
嗡嗡
小班
喔唷
常常
从优
比照
因为
而论
好在
起初
前者
公然
方才
谢谢
诸位
来着
昂然
多多
豁然
是的
一点
继之
这时
路经
古来
慢慢
极了
间或
尔等
不止
请勿
进而
的确
从而
..
那种
而又
几位
假若
那么
从速
局外
切莫
不满
并排
下来
全然
究竟
与其
不曾
那样
不仅
而言
着呢
连袂
大概
别说
除外
瑟瑟
同问
咱们
沿着
比起
莫如
大致
我家
惯常
似的
乘虚
大凡
隔日
只限
也罢
加上
可好
权时
俺们
当庭
前天
乘隙
不怕
亲爱
较为
趁早
大多
宁可
有个
进入
作为
偶尔
格外
大大
理当
切切
连连
存心
可见
轰然
全力
率然
基于
趁热
几乎
不下
陈年
不免
班长
放心
并无
伙同
到底
一下
开外
哪个
真的
较比
可是
何苦
使得
此后
不迭
漫说
岂但
问下
当场
不妨
莫不
决不
就此
这次
其二
要是
日渐
即令
屡次
啥子
它们
尽快
老婆
大举
与否
几经
那边
迫于
因而
光是
分头
只要
理该
以免
从中
就算
截然
其中
从严
鉴于
不然
而已
出去
举凡
此间
暗自
其一
恰如
奋勇
从不
连声
倘然
或是
不外
不力
哪怕
顶多
继而
暗中
趁势
那个
非徒
毫不
将要
恰恰
不比
除开
倘使
敢情
极其
不胜
不惟
有些
仅仅
倍加
打扰
难说
宁愿
某个
设若
有人
极大
一来
经过
如其
 [
据称
据悉
从轻
至于
自身
尽早
亲手
何尝
纵使
不行
及其
别的
过来
彻夜
那些
多亏
自家
其余
大都
并没
当头
从未
高低
本着
请问
后面
还好
后来
切勿
立马
更加
乘胜
略为
尚且
除却
非但
极端
云云
即使
这个
偶而
居然
成心
自从
保管
放量
何止
绝不
绝非
不只
才能
亲眼
我们
反而
有时
纵令
没得
反倒
来讲
不少
乘势
故而
凝神
其实
达旦
不论
偏偏
仍旧
默然
呜呼
得起
这儿
不日
您好
难怪
以致
猛然
以便
要么
到处
平素
哼唷
譬如
借此
自己
取道
就要
帮忙
嘎登
谁知
极力
起先
如若
毕竟
各自
从小
单单
否则
对于
其后
而后
断然
哗啦
纯粹
乃至
当儿
处处
当然
呼啦
我查
不必
甚么
及至
罢了
日臻
从头
——
藉以
尔后
而且
不拘
该当
并肩
较之
你好
吧哒
呼哧
假使
勃然
起头
一起
亲们
联袂
这样
愤然
尽然
麻烦
倒是
不特
隔夜
率尔
问问
交口
以及
顺着
临到
全都
必定
以至
东东
左右
因此
况且
略加
大略
不单
方能
如次
一旦
嘎嘎
缕缕
的话
不成
等到
皆可
大不了
就是说
&gt
哈哈哈
呆呆地
于是乎
自各儿
差不多
敞开儿
不得了
常言道
大体上
这么样
换言之
怪不得
那么样
没什么
充其极
问一下
谢谢您
够瞧的
近年来
不至于
要不然
抽冷子
不怎么
差一点
不外乎
即是说
这会儿
紧接着
到头来
o_o
看样子
充其量
自个儿
当口儿
不得不
策略地
背靠背
那么些
到了儿
反之则
...
猛然间
全身心
那会儿
默默地
不得已
&lt

